Kernel-weighted regression modelling — sm_regression • sjosmooth
…
      dist.method
      Specifies the distance measure to be used in the kernel.
Default is `euclidean`. Distance measures accepted by
stats::dist is acceptable.

    Examples

sm_regression(
  data = mtcars,
  method = "lm",
  formula = mpg ~ am ,
  weighting_var = "hp",
  lambda = 2
)
#> # A tibble: 31 x 9
#>    newdata newdata_scaled distance weight model_safely model_error model_warning
#>    <list>  <list>         <list>   <list> <list>       <list>      <list>       
#>  1 <tibbl~ <tibble [1 x ~ <dbl [3~ <dbl ~ <list [2]>   <NULL>      <chr [0]>    
#>  2 <tibbl~ <tibble [1 x ~ <dbl [3~ <dbl ~ <list [2]>   <NULL>      <chr [0]>    
#>  3 <tibbl~ <tibble [1 x ~ <dbl [3~ <dbl ~ <list [2]>   <NULL>      <chr [0]>    
#>  4 <tibbl~ <tibble [1 x ~ <dbl [3~ <dbl ~ <list [2]>   <NULL>      <chr [0]>    
#>  5 <tibbl~ <tibble [1 x ~ <dbl [3~ <dbl ~ <list [2]>   <NULL>      <chr [0]>    
#>  6 <tibbl~ <tibble [1 x ~ <dbl [3~ <dbl ~ <list [2]>   <NULL>      <chr [0]>    
#>  7 <tibbl~ <tibble [1 x ~ <dbl [3~ <dbl ~ <list [2]>   <NULL>      <chr [0]>    
#>  8 <tibbl~ <tibble [1 x ~ <dbl [3~ <dbl ~ <list [2]>   <NULL>      <chr [0]>    
#>  9 <tibbl~ <tibble [1 x ~ <dbl [3~ <dbl ~ <list [2]>   <NULL>      <chr [0]>    
#> 10 <tibbl~ <tibble [1 x ~ <dbl [3~ <dbl ~ <list [2]>   <NULL>      <chr [0]>    
#> # ... with 21 more rows, and 2 more variables: model_message <list>,
#> #   model_obj <list>
…
